{
  "project_info": {
    "project_number": "526646307139",
    "firebase_url": "https://listageoreferenciada.firebaseio.com",
    "project_id": "listageoreferenciada",
    "storage_bucket": "listageoreferenciada.appspot.com"
  },
  "client": [
    {
      "client_info": {
        "mobilesdk_app_id": "1:526646307139:android:1c424d629b7c3697",
        "android_client_info": {
          "package_name": "com.example.elmac.listageoreferenciada"
        }
      },
      "oauth_client": [
        {
          "client_id": "526646307139-brrsinh9hd99b6357j4hcchk865dei27.apps.googleusercontent.com",
          "client_type": 1,
          "android_info": {
            "package_name": "com.example.elmac.listageoreferenciada",
            "certificate_hash": "0d823f44a856a56552a84d24b24b2fd71b36cd5e"
          }
        },
        {
          "client_id": "526646307139-2v7o534vsag8ro3dt3fb1mmtqkd9jk7p.apps.googleusercontent.com",
          "client_type": 3
        }
      ],
      "api_key": [
        {
          "current_key": "AIzaSyAgCRdyfznfXEQ_DSWMYv2V2VBhQyarPMI"
        }
      ],
      "services": {
        "analytics_service": {
          "status": 1
        },
        "appinvite_service": {
          "status": 2,
          "other_platform_oauth_client": [
            {
              "client_id": "526646307139-2v7o534vsag8ro3dt3fb1mmtqkd9jk7p.apps.googleusercontent.com",
              "client_type": 3
            }
          ]
        },
        "ads_service": {
          "status": 2
        }
      }
    }
  ],
  "configuration_version": "1"
}