<?xml version="1.0" encoding="utf-8"?><!-- Generator: Adobe Illustrator 18.1.1, SVG Export Plug-In . SVG Version: 6.00 Build 0)  -->
<svg version="1.1" id="Capa_1" xmlns="http://www.w3.org/2000/svg" xmlns:xlink="http://www.w3.org/1999/xlink" x="0px" y="0px"
	 viewBox="0 0 100 100" enable-background="new 0 0 100 100" xml:space="preserve">
<g>
	<g>
		<path fill="#931B37" d="M21.8,36.8c-0.2,0.2-0.4,0.4-0.4,0.5c-0.2,0.5,0,1.6,0.6,3.2c0.3,1,0.9,2.5,1.5,4.6
			c0.6,1.9,1.1,3.4,1.5,4.4c1.2,3.5,1.9,5.5,2.1,6c1,3.1,1.7,5,2.3,5.8c0.6,0.8,0.8,1.2,0.9,1.1c-0.1,0-0.2,0.1-0.3,0.1
			c-0.2,0-0.3,0.1-0.4,0.1c-0.8,0-2.1-0.1-3.8-0.1c-1.5,0-2.7,0-3.4-0.1c0-0.2,0.2-0.5,0.6-0.9c0-0.2,0.1-0.5,0.2-1
			c0.1-0.4,0.1-0.7,0-1c-0.2-1.1-0.7-2.3-1.4-3.6c-3.5-0.1-5.5-0.1-6.2-0.1c-1,2.6-1.4,4.3-1.3,5.1c0,0.1,0.2,0.4,0.4,0.6
			c0.2,0.2,0.2,0.4,0.2,0.6c-2.7,0.1-5.3,0.1-7.8-0.1c0-0.1,0.2-0.3,0.5-0.6C7.7,61.3,8,61.2,8,61.1c0.4-0.7,1.2-2.6,2.5-5.9
			c0.5-1.3,1.1-3.1,1.7-5.3c0.1-0.4,0.5-1.7,1.2-4c0.5-1.6,0.9-3,1.2-4.1c0-0.2,0.1-0.5,0.3-1c0.2-0.5,0.3-0.9,0.3-1.2
			c0.2-0.9,0.2-1.7-0.1-2.3c-0.1-0.1-0.2-0.3-0.4-0.5c-0.2-0.2-0.3-0.4-0.4-0.5c0.1-0.1,0.4-0.2,1-0.2c0.5,0,1.4,0,2.9,0.1
			c1.2,0,2.2,0.1,2.9,0c0.1,0,0.1,0,0.3,0c0.1,0,0.2,0,0.3-0.1c0.2,0,0.3,0,0.5,0.1C22.3,36.4,22.1,36.5,21.8,36.8z M20.3,57
			c-0.2,0-0.9,0-2.1,0c-0.8,0-1.5,0-2,0.1c-0.7,1.8-1.1,3-1,3.8c0,0.3,0.3,0.8,0.6,1.3c0.3,0.5,0.5,0.9,0.4,1.2
			c-0.7,0.1-1.8,0.2-3.3,0.1c-2.1,0-3.3,0-3.7,0c-0.1,0-0.2,0-0.3,0c-0.1,0-0.2,0-0.3,0c-0.2,0-0.4,0-0.5-0.2
			C8.2,63.1,8.3,63,8.6,63c-0.1,0,0.2,0,0.8,0.1c0.9,0,2,0,3.3,0c1.6-0.1,2.7-0.1,3.1-0.1c-0.1-0.2-0.3-0.6-0.6-1.1
			c-0.3-0.5-0.5-0.9-0.5-1.2c-0.1-0.6,0.1-1.4,0.4-2.2c0-0.1,0.2-0.5,0.5-1c0.2-0.4,0.3-0.7,0.4-1c0.5,0,1.1,0.1,1.9,0.1
			c1,0,1.7,0,1.9,0c0.1,0,0.2,0,0.4,0c0.2,0,0.3,0,0.5,0c0.3,0,0.6,0.1,0.7,0.4C21.2,56.9,20.9,57,20.3,57z M18.7,52.9
			c0.8,0,1.4,0,1.9-0.1c-1.3-3-2-4.6-2.1-4.7c-0.2,0.5-0.5,1.3-1,2.4c-0.4,1-0.7,1.8-0.9,2.4C16.8,52.9,17.5,52.9,18.7,52.9z
			 M18.1,51.1c0,0.1-0.1,0.2-0.2,0.4c-0.1,0.2-0.1,0.4-0.2,0.5c-0.2,0.3-0.3,0.6-0.6,0.7c0-0.1-0.1-0.1-0.2-0.2
			c0.6-1.6,1.1-2.6,1.4-3.2c0,0,0.2,0,0.3,0.1C18.7,49.6,18.5,50.2,18.1,51.1z M23.1,37.2c-0.2,0.4-0.3,0.6-0.3,0.7
			c-0.1,0.4-0.1,0.8,0.1,1.4c0.2,0.9,1.3,4.4,3.3,10.6c0.3,1,0.9,2.7,1.8,5.2c0.9,2.5,1.6,4.2,2.1,5.2c0.4,0.7,0.6,1.1,0.9,1.4
			c0.1,0.1,0.2,0.2,0.4,0.4c0.2,0.2,0.3,0.3,0.4,0.4c0.3,0.4,0.3,0.7-0.1,0.9c-1.6,0.2-3.7,0.3-6.3,0.2c-1.1,0-1.7-0.1-1.9-0.2
			c0.1-0.2,0.4-0.3,0.7-0.3c0.1,0,0.2,0,0.4,0c0.2,0,0.4,0,0.4,0c4.1,0,6.2,0,6.4,0c0,0.1-0.4-0.3-1.1-1.3c-0.1-0.1-0.4-0.7-0.9-1.7
			c-0.1-0.1-0.2-0.4-0.5-0.9c-0.2-0.4-0.3-0.6-0.4-0.8c-0.2-0.5-0.5-1.4-0.8-2.5c-0.3-1.2-0.6-2-0.8-2.6c-1.1-3-1.7-4.6-1.8-4.9
			c-0.1-0.3-0.4-1.1-0.9-2.4c-0.4-1-0.7-1.9-0.9-2.6c-0.4-1.5-0.7-2.4-0.8-2.6c-0.3-1-0.5-1.7-0.6-2.2c-0.1-0.8,0.1-1.4,0.6-1.9
			c0.1,0,0.2,0,0.3-0.1c0.1-0.1,0.2-0.1,0.3-0.1C23.3,36.7,23.3,37,23.1,37.2z"/>
		<path fill="#931B37" d="M36.7,36.2c1.8-0.1,3-0.1,3.8,0c0,0.2-0.1,0.3-0.2,0.5c-0.2,0.2-0.3,0.4-0.3,0.4c-0.6,1.2-0.8,3.1-0.8,5.7
			c0,0.5,0,1.5,0.1,3.2c0.1,1.2,0.1,2.2,0,2.8c0,0.2,0,0.5-0.1,0.9c0,0.4-0.1,0.7-0.1,0.9c0,0.6,0,1.9,0.1,3.8
			c0.1,1.6,0.1,2.8,0,3.6c0.3,0,1.8,0.1,4.6,0.2c2.1,0.1,3.8,0.1,5,0c0,0,0.1,0,0.5-0.1c0.2,0,0.3,0,0.4,0.1
			c0.5-0.7,0.8-1.2,0.9-1.4c0.5,0,1,0.1,1.2,0.3c-0.2,0.7-0.5,1.5-1.1,2.6c-0.6,1.2-1,2.1-1.2,2.6c-6.8,0.2-12.5,0.2-17.2-0.1
			c0-0.2,0.2-0.5,0.4-0.9c0.3-0.4,0.5-0.7,0.6-0.9c0.2-0.6,0.4-1.5,0.4-2.7c0-0.3,0-0.8,0-1.5c0-0.6,0-1.2,0-1.5
			c0.1-3.2,0.2-5.7,0.2-7.6v-8c0-0.5-0.1-0.8-0.1-0.9c-0.1-0.3-0.2-0.6-0.5-1c-0.3-0.5-0.5-0.8-0.5-1c0,0,0.1,0,0.1-0.1
			c0,0,0.1-0.1,0.1-0.1C33.9,36.2,35.1,36.3,36.7,36.2z M52.5,58.7c0,0.1-0.1,0.2-0.2,0.3c-0.1,0.1-0.1,0.2-0.2,0.3
			c-1,1.9-1.5,3-1.8,3.3c0,0.1-0.1,0.3-0.3,0.8c-2.8,0.2-8.1,0.1-16-0.1c0-0.3,0.2-0.4,0.6-0.4c0.1,0,0.3,0,0.6,0c0.3,0,0.5,0,0.6,0
			c6.4,0.2,11,0.2,13.9,0.1c0.4-0.5,0.8-1.3,1.4-2.5c0.6-1.2,1-2,1.3-2.4c0.1,0,0.1,0,0.1,0.1C52.7,58.3,52.7,58.4,52.5,58.7z
			 M41.4,36.9c0-0.1-0.2,0.3-0.5,1.1c-0.4,0.9-0.6,2.3-0.5,4.3c0,1.1,0,3.1-0.1,5.8c-0.1,2.6-0.1,4.6-0.1,6.1c0,0.2,0,0.5,0,1.1
			c0,0.5,0,1,0,1.5c0,0,0,0.1,0,0.2s0,0.2,0,0.2c0,0.2-0.1,0.3-0.2,0.3c-0.2,0-0.3-0.2-0.3-0.5c0-0.1,0-0.2,0-0.3c0-0.2,0-0.3,0-0.3
			c0-2.4-0.1-3.8-0.1-4.1c0-0.3,0-1.8,0.1-4.8c0-1.9,0.1-3.6,0.1-4.9c0.1-2.3,0.3-3.9,0.6-4.6c0.2-0.5,0.5-0.9,0.7-1.1H41.4z"/>
		<path fill="#931B37" d="M70.1,41.7c-0.4,0-0.6-0.1-0.7-0.1c-0.1-0.1-0.3-0.2-0.4-0.5c-0.2-0.2-0.3-0.4-0.4-0.5
			c-0.9-0.1-3.1-0.1-6.5-0.1c-0.3,3.4-0.4,7.3-0.3,11.7c0,3.3,0.2,5.7,0.4,7.3c0.1,0.6,0.3,1.2,0.5,1.7c0,0.1,0.2,0.2,0.3,0.4
			c0.1,0.1,0.2,0.3,0.3,0.4c0,0.2-0.2,0.3-0.4,0.3c0,0-0.1,0-0.2-0.1c-0.1,0-0.2,0-0.3,0c-1.1,0-2.7,0-4.6,0.1c0,0-0.2,0-0.6,0
			c-0.4,0-0.7,0-0.9,0.1c-0.8,0-1.2-0.1-1.3-0.3c0,0.1,0.3-0.2,0.8-0.8c0.3-0.4,0.5-0.9,0.6-1.4c0.1-0.4,0.2-2,0.3-4.7
			c0-0.5,0-5.3,0.1-14.6c-0.6-0.1-2.3-0.1-4.9-0.1c-1.2,0-1.7,0-1.7,0c-0.2,0-0.4,0.2-0.5,0.5c-0.2,0.3-0.3,0.5-0.4,0.6
			c-0.1,0-0.3,0-0.7,0c-0.4,0-0.6,0-0.8-0.1c0-0.1,0.2-0.5,0.6-1.4c0.2-0.5,0.5-1,0.6-1.4c0.7-1.4,1.2-2.2,1.4-2.5
			c9,0,14.6-0.1,16.8-0.2c0.4,0,0.7,0,1,0.1c0.3,0.5,0.6,1.2,1,2c0.5,1,0.9,1.7,1,2.1c0.4,0.8,0.6,1.2,0.6,1.3
			C70.6,41.7,70.4,41.8,70.1,41.7z M55.7,41.5c0,0-0.1,0-0.3,0c-0.1,0-0.2,0-0.3,0c-2,0-3.5,0-4.4,0.1c-0.2,0.5-0.5,0.8-1,1
			c-0.5,0.2-0.9,0.2-1.4,0c0.1-0.2,0.2-0.4,0.5-0.3c0.5,0,0.8,0.1,0.7,0.1c0.3-0.7,0.6-1.1,0.9-1.1c0.4,0,1.2,0,2.6,0
			c1.3-0.1,2.2,0,2.7,0.1c0.2,0,0.3,0.1,0.4,0.3C56.1,41.5,56,41.5,55.7,41.5z M66.9,41.7c-0.4,0-1.1,0-2,0c-0.8,0-1.3,0-1.6-0.1
			c-0.1,0.2-0.2,0.8-0.2,1.8c0,1.1-0.1,3.3-0.2,6.8c-0.1,2.8-0.1,4.9-0.1,6.2c0.1,2.6,0.6,4.4,1.7,5.6c0.6,0.4,0.8,0.8,0.8,1.1
			c-0.2,0.1-1,0.1-2.3,0.1c-0.5,0-1.5,0-2.8,0c-1.3,0-2.3,0-3.1,0c-0.6,0-0.9-0.1-1-0.2c0.1-0.2,0.2-0.4,0.4-0.4c0,0,0.1,0,0.3,0
			c0.2,0,0.3,0,0.4,0c0.7,0,2,0,3.8,0c1.6,0,2.8,0,3.5,0c0-0.2-0.2-0.4-0.4-0.5c-0.3-0.3-0.5-0.4-0.5-0.5c-0.7-0.9-1.1-2.2-1.2-4
			c-0.1-1.1-0.1-2.7,0-4.8c0-0.7,0-1.8,0.1-3.3c0-1.4,0-2.5,0.1-3.2c0.1-1.8,0.1-3.5-0.1-5.1c0.1,0,0.1,0,0.1-0.1s0-0.1,0.1-0.1
			c0.4-0.1,1.9-0.1,4.5,0c0.1,0,0.2,0,0.4,0c0.2,0,0.3,0,0.4,0c0.3,0,0.5,0.2,0.5,0.4C68.4,41.7,67.9,41.7,66.9,41.7z M71.4,42.8
			c-0.5,0-0.8,0.1-1,0.1c-0.2-0.3-0.3-0.5-0.2-0.7c0.1,0,0.3,0,0.7,0c0.4,0,0.6,0,0.8,0c-0.1-0.1-0.5-1-1.3-2.7
			c-0.8-1.7-1.2-2.6-1.3-2.7c0.2-0.1,0.4-0.1,0.3-0.1c0.4,0.6,0.8,1.5,1.3,2.6c0.6,1.3,1,2.2,1.3,2.6c0.3,0.2,0.4,0.5,0.3,0.9
			C72.1,42.8,71.8,42.8,71.4,42.8z"/>
		<path fill="#931B37" d="M82.5,36.8c-0.2,0.2-0.4,0.4-0.4,0.5c-0.2,0.5,0,1.6,0.6,3.2c0.3,1,0.9,2.5,1.5,4.6
			c0.6,1.9,1.1,3.4,1.5,4.4c1.2,3.5,1.9,5.5,2.1,6c1,3.1,1.7,5,2.3,5.8c0.6,0.8,0.8,1.2,0.9,1.1c-0.1,0-0.2,0.1-0.3,0.1
			c-0.2,0-0.3,0.1-0.4,0.1c-0.8,0-2.1-0.1-3.8-0.1c-1.5,0-2.7,0-3.4-0.1c0-0.2,0.2-0.5,0.6-0.9c0-0.2,0.1-0.5,0.2-1
			c0.1-0.4,0.1-0.7,0-1c-0.2-1.1-0.7-2.3-1.4-3.6c-3.5-0.1-5.5-0.1-6.2-0.1c-1,2.6-1.4,4.3-1.3,5.1c0,0.1,0.2,0.4,0.4,0.6
			c0.2,0.2,0.2,0.4,0.2,0.6c-2.7,0.1-5.3,0.1-7.8-0.1c0-0.1,0.2-0.3,0.5-0.6c0.4-0.3,0.6-0.5,0.7-0.5c0.4-0.7,1.2-2.6,2.5-5.9
			c0.5-1.3,1.1-3.1,1.7-5.3c0.1-0.4,0.5-1.7,1.2-4c0.5-1.6,0.9-3,1.2-4.1c0-0.2,0.1-0.5,0.3-1c0.2-0.5,0.3-0.9,0.3-1.2
			c0.2-0.9,0.2-1.7-0.1-2.3c-0.1-0.1-0.2-0.3-0.4-0.5c-0.2-0.2-0.3-0.4-0.4-0.5c0.1-0.1,0.4-0.2,1-0.2c0.5,0,1.4,0,2.9,0.1
			c1.2,0,2.2,0.1,2.9,0c0.1,0,0.1,0,0.3,0c0.1,0,0.2,0,0.3-0.1c0.2,0,0.3,0,0.5,0.1C83,36.4,82.8,36.5,82.5,36.8z M81,57
			c-0.2,0-0.9,0-2.1,0c-0.8,0-1.5,0-2,0.1c-0.7,1.8-1.1,3-1,3.8c0,0.3,0.3,0.8,0.6,1.3c0.3,0.5,0.5,0.9,0.4,1.2
			c-0.7,0.1-1.8,0.2-3.3,0.1c-2.1,0-3.3,0-3.7,0c-0.1,0-0.2,0-0.3,0c-0.1,0-0.2,0-0.3,0c-0.2,0-0.4,0-0.5-0.2
			c0.1-0.3,0.2-0.4,0.5-0.4c-0.1,0,0.2,0,0.8,0.1c0.9,0,2,0,3.3,0c1.6-0.1,2.7-0.1,3.1-0.1c-0.1-0.2-0.3-0.6-0.6-1.1
			c-0.3-0.5-0.5-0.9-0.5-1.2c-0.1-0.6,0.1-1.4,0.4-2.2c0-0.1,0.2-0.5,0.5-1c0.2-0.4,0.3-0.7,0.4-1c0.5,0,1.1,0.1,1.9,0.1
			c1,0,1.7,0,1.9,0c0.1,0,0.2,0,0.4,0c0.2,0,0.3,0,0.5,0c0.3,0,0.6,0.1,0.7,0.4C81.9,56.9,81.6,57,81,57z M79.4,52.9
			c0.8,0,1.4,0,1.9-0.1c-1.3-3-2-4.6-2.1-4.7c-0.2,0.5-0.5,1.3-1,2.4c-0.4,1-0.7,1.8-0.9,2.4C77.5,52.9,78.2,52.9,79.4,52.9z
			 M78.8,51.1c0,0.1-0.1,0.2-0.2,0.4c-0.1,0.2-0.1,0.4-0.2,0.5c-0.2,0.3-0.3,0.6-0.6,0.7c0-0.1-0.1-0.1-0.2-0.2
			c0.6-1.6,1.1-2.6,1.4-3.2c0,0,0.2,0,0.3,0.1C79.4,49.6,79.2,50.2,78.8,51.1z M83.8,37.2c-0.2,0.4-0.3,0.6-0.3,0.7
			c-0.1,0.4-0.1,0.8,0.1,1.4c0.2,0.9,1.3,4.4,3.3,10.6c0.3,1,0.9,2.7,1.8,5.2c0.9,2.5,1.6,4.2,2.1,5.2c0.4,0.7,0.6,1.1,0.9,1.4
			c0.1,0.1,0.2,0.2,0.4,0.4c0.2,0.2,0.3,0.3,0.4,0.4c0.3,0.4,0.3,0.7-0.1,0.9c-1.6,0.2-3.7,0.3-6.3,0.2c-1.1,0-1.7-0.1-1.9-0.2
			c0.1-0.2,0.4-0.3,0.7-0.3c0.1,0,0.2,0,0.4,0c0.2,0,0.4,0,0.4,0c4.1,0,6.2,0,6.4,0c0,0.1-0.4-0.3-1.1-1.3c-0.1-0.1-0.4-0.7-0.9-1.7
			c-0.1-0.1-0.2-0.4-0.5-0.9c-0.2-0.4-0.3-0.6-0.4-0.8c-0.2-0.5-0.5-1.4-0.8-2.5c-0.3-1.2-0.6-2-0.8-2.6c-1.1-3-1.7-4.6-1.8-4.9
			c-0.1-0.3-0.4-1.1-0.9-2.4c-0.4-1-0.7-1.9-0.9-2.6c-0.4-1.5-0.7-2.4-0.8-2.6c-0.3-1-0.5-1.7-0.6-2.2c-0.1-0.8,0.1-1.4,0.6-1.9
			c0.1,0,0.2,0,0.3-0.1c0.1-0.1,0.2-0.1,0.3-0.1C84,36.7,84,37,83.8,37.2z"/>
	</g>
	<g>
		<g>
			<path fill="none" d="M50,10.2c-15.3,0-28.6,8.6-35.2,21.3h70.4C78.6,18.9,65.3,10.2,50,10.2z"/>
			<path fill="none" d="M50,89.8c15.3,0,28.6-8.6,35.2-21.3H14.8C21.4,81.1,34.7,89.8,50,89.8z"/>
			<path fill="none" d="M89.4,68.9c-0.1,0-0.3,0-0.4-0.1c-0.2-0.1-0.3-0.2-0.4-0.3h-1.9C79.9,81.8,66,91,50,91s-29.9-9.2-36.6-22.6
				h-1.2c0.4,0.8,0.8,1.6,1.3,2.4c0.3,0.5,0.1,1.2-0.4,1.5c-0.2,0.1-0.4,0.1-0.5,0.1c-0.4,0-0.7-0.2-0.9-0.5C11,71,10.5,70,10,69
				c-0.1-0.2-0.1-0.3-0.1-0.5H7.4c7.1,16.4,23.5,28,42.6,28s35.4-11.5,42.6-28h-2.4C90,68.7,89.7,68.9,89.4,68.9z M17.4,78.4
				c-0.2,0.2-0.4,0.2-0.7,0.2c-0.3,0-0.6-0.1-0.8-0.4c-0.7-0.8-1.4-1.7-2-2.6c-0.3-0.5-0.2-1.2,0.3-1.5c0.5-0.3,1.2-0.2,1.5,0.3
				c0.6,0.9,1.3,1.7,1.9,2.5C18,77.3,17.9,78,17.4,78.4z M22.9,83.6c-0.2,0.3-0.5,0.4-0.8,0.4c-0.2,0-0.5-0.1-0.7-0.3
				c-0.8-0.7-1.7-1.5-2.4-2.2c-0.4-0.4-0.4-1.1,0-1.5c0.4-0.4,1.1-0.4,1.5,0c0.7,0.7,1.5,1.5,2.3,2.1C23.2,82.5,23.3,83.2,22.9,83.6
				z M29.2,87.8c-0.2,0.3-0.6,0.5-0.9,0.5c-0.2,0-0.4,0-0.5-0.1c-0.9-0.6-1.9-1.2-2.8-1.8c-0.5-0.3-0.6-1-0.3-1.5
				c0.3-0.5,1-0.6,1.5-0.3c0.9,0.6,1.8,1.2,2.7,1.7C29.3,86.7,29.5,87.3,29.2,87.8z M36.1,90.9c-0.2,0.4-0.6,0.7-1,0.7
				c-0.1,0-0.3,0-0.4-0.1c-1-0.4-2.1-0.8-3.1-1.3c-0.5-0.2-0.8-0.9-0.5-1.4c0.2-0.5,0.9-0.8,1.4-0.5c1,0.4,1.9,0.8,2.9,1.2
				C36,89.7,36.3,90.3,36.1,90.9z M42.3,93.6c-0.1,0-0.1,0-0.2,0c-1.1-0.2-2.2-0.4-3.2-0.7c-0.6-0.1-0.9-0.7-0.8-1.3
				c0.1-0.6,0.7-0.9,1.3-0.8c1,0.3,2.1,0.5,3.1,0.7c0.6,0.1,1,0.7,0.9,1.3C43.3,93.2,42.8,93.6,42.3,93.6z M49.8,94.3
				C49.8,94.3,49.8,94.3,49.8,94.3c-1.1,0-2.2,0-3.3-0.1c-0.6,0-1-0.6-1-1.2c0-0.6,0.5-1,1.2-1c1,0.1,2.1,0.1,3.2,0.1
				c0.6,0,1.1,0.5,1.1,1.1C50.9,93.8,50.4,94.3,49.8,94.3z M57.5,93.6c-1.1,0.2-2.2,0.3-3.3,0.4c0,0-0.1,0-0.1,0c-0.6,0-1-0.4-1.1-1
				c-0.1-0.6,0.4-1.1,1-1.2c1-0.1,2.1-0.2,3.1-0.4c0.6-0.1,1.1,0.3,1.2,0.9C58.5,93,58.1,93.5,57.5,93.6z M65,91.7
				c-1,0.4-2.1,0.7-3.2,1c-0.1,0-0.2,0-0.3,0c-0.5,0-0.9-0.3-1-0.8c-0.2-0.6,0.2-1.2,0.8-1.3c1-0.3,2-0.6,3-1
				c0.6-0.2,1.2,0.1,1.4,0.6C65.9,90.8,65.6,91.5,65,91.7z M72,88.4c-1,0.5-1.9,1.1-2.9,1.5C69,90,68.8,90,68.6,90
				c-0.4,0-0.8-0.2-1-0.6c-0.3-0.5,0-1.2,0.5-1.4c0.9-0.5,1.9-0.9,2.8-1.5c0.5-0.3,1.2-0.1,1.5,0.4C72.7,87.4,72.6,88.1,72,88.4z
				 M78.4,84c-0.8,0.7-1.7,1.4-2.6,2c-0.2,0.1-0.4,0.2-0.6,0.2c-0.3,0-0.7-0.2-0.9-0.5c-0.3-0.5-0.2-1.2,0.2-1.5
				c0.8-0.6,1.7-1.3,2.5-1.9c0.5-0.4,1.1-0.3,1.5,0.1C78.9,82.9,78.8,83.6,78.4,84z M83.9,78.5c-0.7,0.8-1.5,1.7-2.2,2.5
				c-0.2,0.2-0.5,0.3-0.8,0.3c-0.3,0-0.5-0.1-0.8-0.3c-0.4-0.4-0.4-1.1,0-1.5c0.7-0.8,1.4-1.5,2.1-2.3c0.4-0.5,1.1-0.5,1.5-0.1
				C84.2,77.4,84.2,78.1,83.9,78.5z M88.3,72.2c-0.6,1-1.1,1.9-1.8,2.8c-0.2,0.3-0.5,0.5-0.9,0.5c-0.2,0-0.4-0.1-0.6-0.2
				c-0.5-0.3-0.6-1-0.3-1.5c0.6-0.9,1.2-1.8,1.7-2.7c0.3-0.5,1-0.7,1.5-0.4C88.4,71,88.6,71.7,88.3,72.2z"/>
			<path fill="none" d="M50,3.6c-19,0-35.4,11.5-42.6,28h2.3c0,0,0-0.1,0-0.1c0.2-0.5,0.9-0.8,1.4-0.5c0.3,0.1,0.5,0.4,0.6,0.6h1.6
				C20.1,18.2,34,9,50,9s29.9,9.2,36.6,22.6h1.2c-0.4-0.7-0.7-1.4-1.1-2.1c-0.3-0.5-0.1-1.2,0.4-1.5c0.5-0.3,1.2-0.1,1.5,0.4
				c0.5,1,1,1.9,1.5,3c0,0.1,0,0.2,0.1,0.2h2.4C85.4,15.1,69,3.6,50,3.6z M15.4,26c-0.6,0.9-1.2,1.8-1.7,2.7
				c-0.2,0.3-0.6,0.5-0.9,0.5c-0.2,0-0.4,0-0.5-0.1c-0.5-0.3-0.7-1-0.4-1.5c0.6-0.9,1.2-1.9,1.8-2.8c0.3-0.5,1-0.6,1.5-0.3
				C15.6,24.8,15.7,25.5,15.4,26z M20.1,20.3c-0.7,0.7-1.5,1.5-2.1,2.3c-0.2,0.2-0.5,0.4-0.8,0.4c-0.2,0-0.5-0.1-0.7-0.3
				c-0.5-0.4-0.5-1.1-0.1-1.5c0.7-0.8,1.5-1.7,2.2-2.4c0.4-0.4,1.1-0.4,1.5,0C20.5,19.2,20.5,19.9,20.1,20.3z M25.7,15.6
				c-0.9,0.6-1.7,1.2-2.5,1.9c-0.2,0.2-0.4,0.2-0.7,0.2c-0.3,0-0.6-0.1-0.8-0.4c-0.4-0.5-0.3-1.1,0.1-1.5c0.9-0.7,1.7-1.4,2.6-2
				c0.5-0.3,1.2-0.2,1.5,0.3C26.3,14.6,26.2,15.2,25.7,15.6z M32.1,11.9c-1,0.4-1.9,0.9-2.8,1.4c-0.2,0.1-0.4,0.1-0.5,0.1
				c-0.4,0-0.7-0.2-0.9-0.5c-0.3-0.5-0.1-1.2,0.4-1.5c1-0.5,1.9-1.1,2.9-1.5c0.5-0.3,1.2,0,1.4,0.5C32.9,11,32.6,11.6,32.1,11.9z
				 M39,9.3c-1,0.3-2,0.6-3,0.9c-0.1,0-0.2,0.1-0.4,0.1c-0.4,0-0.9-0.3-1-0.7c-0.2-0.6,0.1-1.2,0.7-1.4c1-0.4,2.1-0.7,3.2-1
				C39,7.1,39.6,7.4,39.8,8C39.9,8.6,39.6,9.2,39,9.3z M46.2,8.1c-1,0.1-2.1,0.2-3.1,0.4c-0.1,0-0.1,0-0.2,0c-0.5,0-1-0.4-1.1-0.9
				c-0.1-0.6,0.3-1.1,0.9-1.2C43.9,6.1,45,6,46.1,5.9c0.6-0.1,1.1,0.4,1.2,1C47.3,7.5,46.8,8,46.2,8.1z M53.7,8
				C53.7,8,53.6,8,53.7,8c-1.1-0.1-2.2-0.1-3.2-0.2c-0.6,0-1.1-0.5-1.1-1.1c0-0.6,0.5-1.1,1.1-1.1c1.1,0,2.2,0.1,3.3,0.2
				c0.6,0.1,1,0.6,1,1.2C54.7,7.6,54.3,8,53.7,8z M62.2,8.5c-0.1,0.5-0.6,0.8-1,0.8c-0.1,0-0.2,0-0.3,0c-1-0.3-2-0.5-3.1-0.7
				c-0.6-0.1-1-0.7-0.9-1.3c0.1-0.6,0.7-1,1.3-0.9c1.1,0.2,2.2,0.4,3.2,0.7C62,7.4,62.3,8,62.2,8.5z M69.2,11.3
				c-0.2,0.4-0.6,0.6-1,0.6c-0.2,0-0.3,0-0.5-0.1c-1-0.4-1.9-0.9-2.9-1.2c-0.6-0.2-0.8-0.8-0.6-1.4c0.2-0.6,0.8-0.8,1.4-0.6
				c1,0.4,2.1,0.8,3.1,1.3C69.2,10.1,69.5,10.8,69.2,11.3z M75.6,15.2c-0.2,0.3-0.5,0.5-0.9,0.5c-0.2,0-0.4-0.1-0.6-0.2
				c-0.9-0.6-1.8-1.2-2.7-1.7c-0.5-0.3-0.7-1-0.4-1.5c0.3-0.5,1-0.7,1.5-0.4c0.9,0.6,1.9,1.2,2.8,1.8C75.9,14.1,76,14.7,75.6,15.2z
				 M81.3,20.2c-0.2,0.2-0.5,0.3-0.8,0.3c-0.3,0-0.6-0.1-0.8-0.3c-0.7-0.7-1.5-1.5-2.3-2.1C77,17.7,77,17,77.4,16.6
				c0.4-0.5,1.1-0.5,1.5-0.1c0.8,0.7,1.7,1.5,2.4,2.3C81.7,19.1,81.7,19.8,81.3,20.2z M84.3,22c0.7,0.9,1.4,1.7,2,2.6
				c0.3,0.5,0.2,1.2-0.3,1.5c-0.2,0.1-0.4,0.2-0.6,0.2c-0.3,0-0.7-0.2-0.9-0.5c-0.6-0.9-1.2-1.7-1.9-2.5c-0.4-0.5-0.3-1.1,0.2-1.5
				C83.2,21.5,83.9,21.5,84.3,22z"/>
			<path fill="#70431B" d="M50,89.8c-15.3,0-28.6-8.6-35.2-21.3h-1.4C20.1,81.8,34,91,50,91s29.9-9.2,36.6-22.6h-1.4
				C78.6,81.1,65.3,89.8,50,89.8z"/>
			<path fill="#70431B" d="M50,10.2c15.3,0,28.6,8.6,35.2,21.3h1.4C79.9,18.2,66,9,50,9s-29.9,9.2-36.6,22.6h1.4
				C21.4,18.9,34.7,10.2,50,10.2z"/>
			<path fill="#70431B" d="M49.8,92.1c-1,0-2.1,0-3.2-0.1c-0.6-0.1-1.1,0.4-1.2,1c0,0.6,0.4,1.1,1,1.2c1.1,0.1,2.2,0.1,3.3,0.1
				c0,0,0,0,0,0c0.6,0,1.1-0.5,1.1-1.1C50.9,92.6,50.4,92.1,49.8,92.1z"/>
			<path fill="#70431B" d="M64.3,89.6c-1,0.4-2,0.7-3,1c-0.6,0.2-0.9,0.8-0.8,1.3c0.1,0.5,0.6,0.8,1,0.8c0.1,0,0.2,0,0.3,0
				c1.1-0.3,2.1-0.6,3.2-1c0.6-0.2,0.9-0.8,0.6-1.4C65.5,89.7,64.9,89.4,64.3,89.6z"/>
			<path fill="#70431B" d="M71,86.5c-0.9,0.5-1.8,1-2.8,1.5c-0.5,0.3-0.8,0.9-0.5,1.4c0.2,0.4,0.6,0.6,1,0.6c0.2,0,0.3,0,0.5-0.1
				c1-0.5,2-1,2.9-1.5c0.5-0.3,0.7-1,0.4-1.5C72.1,86.4,71.5,86.2,71,86.5z"/>
			<path fill="#70431B" d="M42.5,91.4c-1-0.2-2.1-0.4-3.1-0.7c-0.6-0.2-1.2,0.2-1.3,0.8c-0.1,0.6,0.2,1.2,0.8,1.3
				c1.1,0.3,2.2,0.5,3.2,0.7c0.1,0,0.1,0,0.2,0c0.5,0,1-0.4,1.1-0.9C43.5,92.1,43.1,91.6,42.5,91.4z"/>
			<path fill="#70431B" d="M87.9,70.7c-0.5-0.3-1.2-0.1-1.5,0.4c-0.5,0.9-1.1,1.8-1.7,2.7c-0.3,0.5-0.2,1.2,0.3,1.5
				c0.2,0.1,0.4,0.2,0.6,0.2c0.3,0,0.7-0.2,0.9-0.5c0.6-0.9,1.2-1.9,1.8-2.8C88.6,71.7,88.4,71,87.9,70.7z"/>
			<path fill="#70431B" d="M82.2,77.1c-0.7,0.8-1.4,1.6-2.1,2.3c-0.4,0.4-0.4,1.1,0,1.5c0.2,0.2,0.5,0.3,0.8,0.3
				c0.3,0,0.6-0.1,0.8-0.3c0.8-0.8,1.5-1.6,2.2-2.5c0.4-0.5,0.3-1.1-0.1-1.5C83.3,76.6,82.6,76.7,82.2,77.1z"/>
			<path fill="#70431B" d="M77,82.3c-0.8,0.7-1.6,1.3-2.5,1.9c-0.5,0.3-0.6,1-0.2,1.5c0.2,0.3,0.5,0.5,0.9,0.5
				c0.2,0,0.4-0.1,0.6-0.2c0.9-0.6,1.8-1.3,2.6-2c0.5-0.4,0.5-1.1,0.1-1.5C78.1,82,77.5,81.9,77,82.3z"/>
			<path fill="#70431B" d="M57.2,91.5c-1,0.2-2.1,0.3-3.1,0.4c-0.6,0.1-1,0.6-1,1.2c0.1,0.6,0.5,1,1.1,1c0,0,0.1,0,0.1,0
				c1.1-0.1,2.2-0.3,3.3-0.4c0.6-0.1,1-0.7,0.9-1.2C58.3,91.8,57.8,91.4,57.2,91.5z"/>
			<path fill="#70431B" d="M90.1,31.3c-0.5-1-1-2-1.5-3c-0.3-0.5-1-0.7-1.5-0.4c-0.5,0.3-0.7,0.9-0.4,1.5c0.4,0.7,0.8,1.4,1.1,2.1
				h2.3C90.2,31.5,90.2,31.4,90.1,31.3z"/>
			<path fill="#70431B" d="M88.9,68.8c0.1,0.1,0.3,0.1,0.4,0.1c0.3,0,0.7-0.2,0.9-0.4h-1.7C88.6,68.6,88.7,68.7,88.9,68.8z"/>
			<path fill="#70431B" d="M11.2,30.9c-0.5-0.3-1.2,0-1.4,0.5c0,0,0,0.1,0,0.1h2C11.7,31.3,11.5,31.1,11.2,30.9z"/>
			<path fill="#70431B" d="M10,69c0.5,1,1,2,1.5,2.9c0.2,0.3,0.6,0.5,0.9,0.5c0.2,0,0.4,0,0.5-0.1c0.5-0.3,0.7-1,0.4-1.5
				c-0.4-0.8-0.9-1.6-1.3-2.4H9.9C9.9,68.6,9.9,68.8,10,69z"/>
			<path fill="#70431B" d="M20.4,80c-0.4-0.4-1.1-0.4-1.5,0c-0.4,0.4-0.4,1.1,0,1.5c0.8,0.8,1.6,1.5,2.4,2.2
				c0.2,0.2,0.5,0.3,0.7,0.3c0.3,0,0.6-0.1,0.8-0.4c0.4-0.5,0.3-1.1-0.1-1.5C22,81.4,21.2,80.7,20.4,80z"/>
			<path fill="#70431B" d="M15.7,74.4c-0.3-0.5-1-0.6-1.5-0.3c-0.5,0.3-0.6,1-0.3,1.5c0.6,0.9,1.3,1.8,2,2.6
				c0.2,0.3,0.5,0.4,0.8,0.4c0.2,0,0.5-0.1,0.7-0.2c0.5-0.4,0.5-1.1,0.1-1.5C16.9,76.1,16.3,75.2,15.7,74.4z"/>
			<path fill="#70431B" d="M28.8,86.4c-0.9-0.5-1.8-1.1-2.7-1.7c-0.5-0.3-1.2-0.2-1.5,0.3c-0.3,0.5-0.2,1.2,0.3,1.5
				c0.9,0.6,1.9,1.2,2.8,1.8c0.2,0.1,0.4,0.1,0.5,0.1c0.4,0,0.7-0.2,0.9-0.5C29.5,87.3,29.3,86.7,28.8,86.4z"/>
			<path fill="#70431B" d="M35.4,89.5c-1-0.4-2-0.8-2.9-1.2c-0.5-0.3-1.2,0-1.4,0.5c-0.2,0.5,0,1.2,0.5,1.4c1,0.5,2,0.9,3.1,1.3
				c0.1,0,0.2,0.1,0.4,0.1c0.4,0,0.9-0.3,1-0.7C36.3,90.3,36,89.7,35.4,89.5z"/>
			<path fill="#70431B" d="M82.6,23.4c0.7,0.8,1.3,1.7,1.9,2.5c0.2,0.3,0.5,0.5,0.9,0.5c0.2,0,0.4-0.1,0.6-0.2
				c0.5-0.3,0.6-1,0.3-1.5c-0.6-0.9-1.3-1.8-2-2.6c-0.4-0.5-1.1-0.5-1.5-0.2C82.3,22.2,82.2,22.9,82.6,23.4z"/>
			<path fill="#70431B" d="M72.6,11.9c-0.5-0.3-1.2-0.1-1.5,0.4c-0.3,0.5-0.1,1.2,0.4,1.5c0.9,0.5,1.8,1.1,2.7,1.7
				c0.2,0.1,0.4,0.2,0.6,0.2c0.3,0,0.7-0.2,0.9-0.5c0.3-0.5,0.2-1.2-0.3-1.5C74.5,13.1,73.5,12.5,72.6,11.9z"/>
			<path fill="#70431B" d="M46.1,5.9C45,6,43.9,6.1,42.8,6.3c-0.6,0.1-1,0.7-0.9,1.2c0.1,0.5,0.5,0.9,1.1,0.9c0.1,0,0.1,0,0.2,0
				c1-0.2,2.1-0.3,3.1-0.4c0.6-0.1,1-0.6,1-1.2C47.2,6.3,46.7,5.9,46.1,5.9z"/>
			<path fill="#70431B" d="M38.4,7.3c-1.1,0.3-2.1,0.6-3.2,1c-0.6,0.2-0.9,0.8-0.7,1.4c0.2,0.4,0.6,0.7,1,0.7c0.1,0,0.2,0,0.4-0.1
				c1-0.3,2-0.7,3-0.9c0.6-0.2,0.9-0.7,0.8-1.3C39.6,7.4,39,7.1,38.4,7.3z"/>
			<path fill="#70431B" d="M78.9,16.4c-0.5-0.4-1.1-0.3-1.5,0.1C77,17,77,17.7,77.5,18.1c0.8,0.7,1.6,1.4,2.3,2.1
				c0.2,0.2,0.5,0.3,0.8,0.3c0.3,0,0.6-0.1,0.8-0.3c0.4-0.4,0.4-1.1,0-1.5C80.5,17.9,79.7,17.2,78.9,16.4z"/>
			<path fill="#70431B" d="M61.4,7.2c-1.1-0.3-2.2-0.5-3.2-0.7c-0.6-0.1-1.1,0.3-1.3,0.9c-0.1,0.6,0.3,1.2,0.9,1.3
				c1,0.2,2.1,0.4,3.1,0.7c0.1,0,0.2,0,0.3,0c0.5,0,0.9-0.3,1-0.8C62.3,8,62,7.4,61.4,7.2z"/>
			<path fill="#70431B" d="M31.2,9.9c-1,0.5-2,1-2.9,1.5c-0.5,0.3-0.7,1-0.4,1.5c0.2,0.4,0.6,0.5,0.9,0.5c0.2,0,0.4,0,0.5-0.1
				c0.9-0.5,1.9-1,2.8-1.4c0.5-0.3,0.8-0.9,0.5-1.4C32.4,9.9,31.7,9.7,31.2,9.9z"/>
			<path fill="#70431B" d="M68.7,9.9c-1-0.5-2-0.9-3.1-1.3c-0.6-0.2-1.2,0.1-1.4,0.6c-0.2,0.6,0.1,1.2,0.6,1.4c1,0.4,2,0.8,2.9,1.2
				c0.1,0.1,0.3,0.1,0.5,0.1c0.4,0,0.8-0.2,1-0.6C69.5,10.8,69.2,10.1,68.7,9.9z"/>
			<path fill="#70431B" d="M53.8,5.9c-1.1-0.1-2.2-0.1-3.3-0.2c-0.6,0-1.1,0.5-1.1,1.1c0,0.6,0.5,1.1,1.1,1.1c1,0,2.1,0.1,3.2,0.1
				c0,0,0.1,0,0.1,0c0.6,0,1-0.4,1.1-1C54.8,6.5,54.4,5.9,53.8,5.9z"/>
			<path fill="#70431B" d="M13.6,24.7c-0.6,0.9-1.2,1.8-1.8,2.8c-0.3,0.5-0.1,1.2,0.4,1.5c0.2,0.1,0.4,0.1,0.5,0.1
				c0.4,0,0.7-0.2,0.9-0.5c0.5-0.9,1.1-1.8,1.7-2.7c0.3-0.5,0.2-1.2-0.3-1.5C14.7,24.1,14,24.3,13.6,24.7z"/>
			<path fill="#70431B" d="M18.6,18.8c-0.8,0.8-1.5,1.6-2.2,2.4c-0.4,0.5-0.3,1.1,0.1,1.5c0.2,0.2,0.5,0.3,0.7,0.3
				c0.3,0,0.6-0.1,0.8-0.4c0.7-0.8,1.4-1.6,2.1-2.3c0.4-0.4,0.4-1.1,0-1.5C19.7,18.4,19,18.4,18.6,18.8z"/>
			<path fill="#70431B" d="M24.5,13.8c-0.9,0.6-1.8,1.3-2.6,2c-0.5,0.4-0.5,1.1-0.1,1.5c0.2,0.3,0.5,0.4,0.8,0.4
				c0.2,0,0.5-0.1,0.7-0.2c0.8-0.7,1.7-1.3,2.5-1.9c0.5-0.3,0.6-1,0.3-1.5C25.7,13.6,25,13.5,24.5,13.8z"/>
			<path fill="#70431B" d="M50,3.6c19,0,35.4,11.5,42.6,28h3.9C89.1,13.1,71.1,0,50,0S10.9,13.1,3.5,31.6h3.9
				C14.6,15.1,31,3.6,50,3.6z"/>
			<path fill="#70431B" d="M50,96.4c-19,0-35.4-11.5-42.6-28H3.5C10.9,86.9,28.9,100,50,100s39.1-13.1,46.5-31.6h-3.9
				C85.4,84.9,69,96.4,50,96.4z"/>
			<path fill="#70431B" d="M10.5,67.5c-0.4,0.2-0.6,0.5-0.6,0.9h2.2c-0.1-0.1-0.1-0.3-0.2-0.4C11.7,67.5,11,67.3,10.5,67.5z"/>
			<path fill="#70431B" d="M89.2,32.9c0.2,0,0.3,0,0.5-0.1c0.5-0.2,0.7-0.7,0.6-1.2h-2.3c0.1,0.2,0.2,0.5,0.3,0.7
				C88.4,32.6,88.8,32.9,89.2,32.9z"/>
		</g>
	</g>
</g>
</svg>
