<?xml version="1.0" encoding="utf-8"?><!-- Generator: Adobe Illustrator 18.1.1, SVG Export Plug-In . SVG Version: 6.00 Build 0)  -->
<svg version="1.1" id="Capa_1" xmlns="http://www.w3.org/2000/svg" xmlns:xlink="http://www.w3.org/1999/xlink" x="0px" y="0px"
	 viewBox="0 0 100 100" enable-background="new 0 0 100 100" xml:space="preserve">
<g>
	<g>
		<circle fill="#931B37" cx="50" cy="61.2" r="8.8"/>
	</g>
	<path fill="#4D5A41" d="M0,17.4v7v2v2l39.9,26.2C42.1,51.2,45.8,49,50,49s7.9,2.2,10.1,5.5L100,28.3v-2v-2v-7H0z"/>
	<path fill="#4D5A41" d="M50,73.3c-6.7,0-12.1-5.4-12.1-12.1c0-1.3,0.2-2.5,0.6-3.6L0,32.3v50.3h100V32.3L61.6,57.5
		c0.4,1.1,0.6,2.4,0.6,3.6C62.1,67.8,56.7,73.3,50,73.3z"/>
</g>
</svg>
