<?xml version="1.0" encoding="utf-8"?><!-- Generator: Adobe Illustrator 18.1.1, SVG Export Plug-In . SVG Version: 6.00 Build 0)  -->
<svg version="1.1" id="Capa_1" xmlns="http://www.w3.org/2000/svg" xmlns:xlink="http://www.w3.org/1999/xlink" x="0px" y="0px"
	 viewBox="0 0 100 100" enable-background="new 0 0 100 100" xml:space="preserve">
<path fill="#931B37" d="M100,59V41l-14.1-1.5c-0.8-2.6-1.8-5.1-3.1-7.4l8.9-11L79,8.3l-11.1,8.9c-2.3-1.3-4.8-2.3-7.4-3L59,0H41
	l-1.5,14.1c-2.6,0.8-5.1,1.8-7.4,3L21,8.3L8.3,21l8.9,11c-1.3,2.3-2.3,4.8-3.1,7.4L0,41v18l14,1.5c0.8,2.6,1.8,5.1,3.1,7.5L8.3,79
	L21,91.7l11-8.8c2.4,1.3,4.9,2.3,7.5,3.1l1.5,14h18l1.5-14c2.6-0.8,5.1-1.8,7.5-3.1l11,8.8L91.7,79l-8.8-11c1.3-2.3,2.3-4.8,3.1-7.5
	L100,59z M66.8,50.1c0,9.3-7.5,16.8-16.8,16.8s-16.8-7.5-16.8-16.8S40.7,33.3,50,33.3S66.8,40.8,66.8,50.1z"/>
</svg>
