<?xml version="1.0" encoding="utf-8"?><!-- Generator: Adobe Illustrator 18.1.1, SVG Export Plug-In . SVG Version: 6.00 Build 0)  -->
<svg version="1.1" id="Capa_1" xmlns="http://www.w3.org/2000/svg" xmlns:xlink="http://www.w3.org/1999/xlink" x="0px" y="0px"
	 viewBox="0 0 100 100" enable-background="new 0 0 100 100" xml:space="preserve">
<g>
	<path fill="#4D5A41" d="M76.2,26.2c-7.6,0-14.4,3.6-18.8,9.2c-2.1-1.7-4.7-2.7-7.4-2.7c-2.8,0-5.4,1-7.5,2.7
		c-4.3-5.6-11.2-9.3-18.8-9.3C10.7,26.2,0,36.9,0,50c0,13.1,10.7,23.8,23.8,23.8c13.1,0,23.8-10.7,23.8-23.8c0-4.1-1-8-2.9-11.3
		c1.5-1.4,3.4-2.2,5.4-2.2c2,0,3.9,0.8,5.3,2.1c-1.9,3.4-2.9,7.3-2.9,11.4c0,13.1,10.7,23.8,23.8,23.8C89.3,73.8,100,63.1,100,50
		C100,36.9,89.3,26.2,76.2,26.2z M23.8,70c-11,0-20-9-20-20c0-11,9-20,20-20s20,9,20,20C43.8,61,34.8,70,23.8,70z M76.2,70
		c-11,0-20-9-20-20c0-11,9-20,20-20s20,9,20,20C96.3,61,87.3,70,76.2,70z"/>
	<path fill="#4D5A41" d="M93.9,45.6c-0.4-2.1-1.1-3.7-1.7-4.8c-0.3-0.5-0.6-1-0.7-1.3c-0.2-0.3-0.2-0.4-0.2-0.4l-3,2.1
		c0,0,0.1,0.1,0.3,0.4c0.2,0.3,0.4,0.5,0.7,0.9c0.5,0.8,1.3,2.1,1.8,3.8c0.3,0.8,0.4,1.8,0.6,2.8c0,0.3,0,0.5,0.1,0.8
		c0,0.1,0,0.5,0,0.8l0,0.9l-0.1,0.8c-0.1,1.1-0.4,2.2-0.7,3.3c-0.2,0.6-0.5,1.1-0.7,1.7c-0.3,0.5-0.6,1.1-0.9,1.6
		c-0.7,1-1.4,2-2.3,2.8C85.9,62.7,85,63.4,84,64c-0.5,0.3-1,0.6-1.5,0.8c-0.5,0.2-1,0.4-1.5,0.6c-0.5,0.2-1,0.3-1.5,0.5
		c-0.5,0.1-1,0.2-1.5,0.3c-0.9,0.1-1.8,0.2-2.6,0.2c-0.8,0-1.5-0.1-2-0.1c-1.1-0.1-1.7-0.3-1.7-0.3s0.6,0.2,1.7,0.5
		c0.6,0.1,1.2,0.2,2,0.3c0.8,0.1,1.7,0.1,2.7,0c0.5-0.1,1-0.1,1.5-0.2c0.5-0.1,1.1-0.2,1.6-0.3c0.5-0.1,1.1-0.3,1.7-0.5
		c0.6-0.2,1.1-0.5,1.7-0.7c1.1-0.6,2.2-1.3,3.2-2.1c1.1-0.8,2-1.8,2.8-2.9c0.4-0.5,0.8-1.1,1.2-1.7c0.3-0.6,0.7-1.2,0.9-1.8
		c0.5-1.3,1-2.5,1.2-3.8l0.2-1l0.1-0.9c0-0.3,0.1-0.5,0.1-0.9c0-0.3,0-0.6,0-0.9C94.2,47.8,94.1,46.7,93.9,45.6z"/>
	<path fill="#4D5A41" d="M35.9,41.6c0.2,0.3,0.4,0.5,0.7,0.9c0.5,0.8,1.3,2.1,1.8,3.8c0.3,0.8,0.4,1.8,0.6,2.8c0,0.3,0,0.5,0.1,0.8
		c0,0.1,0,0.5,0,0.8l0,0.9l-0.1,0.8c-0.1,1.1-0.4,2.2-0.7,3.3c-0.2,0.6-0.5,1.1-0.7,1.7c-0.3,0.5-0.6,1.1-0.9,1.6
		c-0.7,1-1.4,2-2.3,2.8c-0.9,0.9-1.8,1.6-2.8,2.2c-0.5,0.3-1,0.6-1.5,0.8c-0.5,0.2-1,0.4-1.5,0.6c-0.5,0.2-1,0.3-1.5,0.5
		c-0.5,0.1-1,0.2-1.5,0.3c-0.9,0.1-1.8,0.2-2.6,0.2c-0.8,0-1.5-0.1-2-0.1c-1.1-0.1-1.7-0.3-1.7-0.3s0.6,0.2,1.7,0.5
		c0.6,0.1,1.2,0.2,2,0.3c0.8,0.1,1.7,0.1,2.7,0c0.5-0.1,1-0.1,1.5-0.2c0.5-0.1,1.1-0.2,1.6-0.3c0.5-0.1,1.1-0.3,1.7-0.5
		c0.6-0.2,1.1-0.5,1.7-0.7c1.1-0.6,2.2-1.3,3.2-2.1c1.1-0.8,2-1.8,2.8-2.9c0.4-0.5,0.8-1.1,1.2-1.7c0.3-0.6,0.7-1.2,0.9-1.8
		c0.5-1.3,1-2.5,1.2-3.8l0.2-1l0.1-0.9c0-0.3,0.1-0.5,0.1-0.9c0-0.3,0-0.6,0-0.9c0-1.2-0.1-2.3-0.4-3.4c-0.4-2.1-1.1-3.7-1.7-4.8
		c-0.3-0.5-0.6-1-0.7-1.3c-0.2-0.3-0.2-0.4-0.2-0.4l-3,2.1C35.7,41.3,35.7,41.4,35.9,41.6z"/>
</g>
</svg>
