<?xml version="1.0" encoding="utf-8"?><!-- Generator: Adobe Illustrator 18.1.1, SVG Export Plug-In . SVG Version: 6.00 Build 0)  -->
<svg version="1.1" id="Capa_1" xmlns="http://www.w3.org/2000/svg" xmlns:xlink="http://www.w3.org/1999/xlink" x="0px" y="0px"
	 viewBox="0 0 100 100" enable-background="new 0 0 100 100" xml:space="preserve">
<g>
	<g>
		<g>
			<g>
				<path fill="#70431B" d="M50,10.2C72,10.2,89.8,28,89.8,50S72,89.8,50,89.8S10.2,72,10.2,50S28,10.2,50,10.2 M50,9
					C27.4,9,9,27.4,9,50s18.4,41,41,41c22.6,0,41-18.4,41-41S72.6,9,50,9L50,9z"/>
			</g>
			<g>
				<path fill="#70431B" d="M49.8,94.3C49.8,94.3,49.8,94.3,49.8,94.3c-1.1,0-2.2,0-3.3-0.1c-0.6,0-1-0.6-1-1.2c0-0.6,0.6-1,1.2-1
					c1,0.1,2.1,0.1,3.2,0.1c0.6,0,1.1,0.5,1.1,1.1C50.9,93.8,50.4,94.3,49.8,94.3z M54.2,94.1c-0.6,0-1-0.4-1.1-1
					c-0.1-0.6,0.4-1.1,1-1.2c1-0.1,2.1-0.2,3.1-0.4c0.6-0.1,1.1,0.3,1.2,0.9c0.1,0.6-0.3,1.1-0.9,1.2c-1.1,0.2-2.2,0.3-3.3,0.4
					C54.2,94.1,54.2,94.1,54.2,94.1z M42.3,93.6c-0.1,0-0.1,0-0.2,0c-1.1-0.2-2.2-0.4-3.2-0.7c-0.6-0.1-0.9-0.7-0.8-1.3
					c0.2-0.6,0.7-0.9,1.3-0.8c1,0.3,2,0.5,3.1,0.7c0.6,0.1,1,0.7,0.9,1.3C43.3,93.2,42.8,93.6,42.3,93.6z M61.6,92.7
					c-0.5,0-0.9-0.3-1-0.8c-0.2-0.6,0.2-1.2,0.8-1.3c1-0.3,2-0.6,3-1c0.6-0.2,1.2,0.1,1.4,0.6c0.2,0.6-0.1,1.2-0.6,1.4
					c-1,0.4-2.1,0.7-3.2,1C61.8,92.7,61.7,92.7,61.6,92.7z M35,91.6c-0.1,0-0.3,0-0.4-0.1c-1-0.4-2.1-0.8-3.1-1.3
					c-0.5-0.2-0.8-0.9-0.5-1.4c0.2-0.5,0.9-0.8,1.4-0.5c1,0.4,1.9,0.8,2.9,1.2c0.6,0.2,0.8,0.8,0.6,1.4C35.9,91.3,35.5,91.6,35,91.6
					z M68.6,90c-0.4,0-0.8-0.2-1-0.6c-0.3-0.5,0-1.2,0.5-1.4c0.9-0.5,1.9-1,2.8-1.5c0.5-0.3,1.2-0.1,1.5,0.4
					c0.3,0.5,0.1,1.2-0.4,1.5c-0.9,0.5-1.9,1.1-2.9,1.5C69,90,68.8,90,68.6,90z M28.2,88.4c-0.2,0-0.4,0-0.5-0.1
					c-1-0.6-1.9-1.2-2.8-1.8c-0.5-0.3-0.6-1-0.3-1.5c0.3-0.5,1-0.6,1.5-0.3c0.9,0.6,1.8,1.2,2.7,1.7c0.5,0.3,0.7,1,0.4,1.5
					C29,88.2,28.6,88.4,28.2,88.4z M75.1,86.2c-0.3,0-0.7-0.2-0.9-0.5c-0.3-0.5-0.2-1.2,0.2-1.5c0.9-0.6,1.7-1.3,2.5-1.9
					c0.5-0.4,1.1-0.3,1.5,0.1c0.4,0.5,0.3,1.1-0.1,1.5c-0.8,0.7-1.7,1.4-2.6,2C75.6,86.1,75.4,86.2,75.1,86.2z M22.1,84
					c-0.2,0-0.5-0.1-0.7-0.3c-0.8-0.7-1.7-1.5-2.4-2.2c-0.4-0.4-0.4-1.1,0-1.5c0.4-0.4,1.1-0.4,1.5,0c0.7,0.7,1.5,1.5,2.3,2.1
					c0.5,0.4,0.5,1.1,0.1,1.5C22.7,83.9,22.4,84,22.1,84z M80.9,81.3c-0.3,0-0.5-0.1-0.8-0.3c-0.4-0.4-0.4-1.1,0-1.5
					c0.7-0.8,1.4-1.5,2.1-2.3c0.4-0.5,1.1-0.5,1.5-0.1c0.5,0.4,0.5,1.1,0.1,1.5c-0.7,0.8-1.5,1.7-2.2,2.5
					C81.4,81.2,81.1,81.3,80.9,81.3z M16.8,78.7c-0.3,0-0.6-0.1-0.8-0.4c-0.7-0.8-1.4-1.7-2-2.6c-0.3-0.5-0.2-1.2,0.3-1.5
					c0.5-0.3,1.2-0.2,1.5,0.3c0.6,0.9,1.3,1.7,1.9,2.5c0.4,0.5,0.3,1.1-0.1,1.5C17.2,78.6,17,78.7,16.8,78.7z M85.7,75.5
					c-0.2,0-0.4-0.1-0.6-0.2c-0.5-0.3-0.6-1-0.3-1.5c0.6-0.9,1.2-1.8,1.7-2.7c0.3-0.5,1-0.7,1.5-0.4c0.5,0.3,0.7,1,0.4,1.5
					c-0.6,0.9-1.1,1.9-1.8,2.8C86.3,75.3,86,75.5,85.7,75.5z M12.5,72.4c-0.4,0-0.7-0.2-0.9-0.5C11,70.9,10.5,70,10,69
					c-0.3-0.5,0-1.2,0.5-1.4c0.5-0.3,1.2,0,1.4,0.5c0.4,0.9,0.9,1.9,1.5,2.8c0.3,0.5,0.1,1.2-0.4,1.5C12.8,72.4,12.6,72.4,12.5,72.4
					z M89.4,68.9c-0.1,0-0.3,0-0.4-0.1c-0.5-0.2-0.8-0.9-0.5-1.4c0.4-1,0.8-1.9,1.2-2.9c0.2-0.6,0.8-0.8,1.4-0.6
					c0.6,0.2,0.8,0.8,0.6,1.4c-0.4,1-0.8,2.1-1.3,3.1C90.2,68.7,89.8,68.9,89.4,68.9z M9.3,65.6c-0.4,0-0.9-0.3-1-0.7
					c-0.4-1-0.7-2.1-1-3.2c-0.2-0.6,0.2-1.2,0.8-1.3c0.6-0.2,1.2,0.2,1.3,0.8c0.3,1,0.6,2,0.9,3c0.2,0.6-0.1,1.2-0.7,1.4
					C9.6,65.6,9.4,65.6,9.3,65.6z M91.9,61.8c-0.1,0-0.2,0-0.3,0c-0.6-0.1-0.9-0.7-0.8-1.3c0.3-1,0.5-2.1,0.7-3.1
					c0.1-0.6,0.7-1,1.3-0.9c0.6,0.1,1,0.7,0.9,1.3c-0.2,1.1-0.4,2.2-0.7,3.2C92.8,61.4,92.3,61.8,91.9,61.8z M7.4,58.3
					c-0.5,0-1-0.4-1.1-0.9c-0.2-1.1-0.3-2.2-0.4-3.3c-0.1-0.6,0.4-1.1,1-1.2c0.6-0.1,1.1,0.4,1.2,1c0.1,1,0.2,2.1,0.4,3.1
					c0.1,0.6-0.3,1.1-0.9,1.2C7.5,58.3,7.5,58.3,7.4,58.3z M93.1,54.3C93,54.3,93,54.3,93.1,54.3c-0.7,0-1.1-0.6-1.1-1.2
					c0.1-1,0.1-2.1,0.1-3.2c0-0.6,0.5-1.1,1.1-1.1c0.6,0,1.1,0.5,1.1,1.1c0,1.1,0,2.2-0.1,3.3C94.1,53.9,93.6,54.3,93.1,54.3z
					 M6.8,50.8C6.8,50.8,6.8,50.8,6.8,50.8c-0.6,0-1.1-0.5-1.1-1.1c0-1.1,0.1-2.2,0.1-3.3c0-0.6,0.6-1,1.2-1c0.6,0,1,0.6,1,1.2
					c-0.1,1-0.1,2.1-0.1,3.2C7.9,50.3,7.4,50.8,6.8,50.8z M93,47.4c-0.6,0-1-0.4-1.1-1c-0.1-1-0.2-2.1-0.4-3.1
					c-0.1-0.6,0.3-1.1,0.9-1.2c0.6-0.1,1.1,0.3,1.2,0.9c0.2,1.1,0.3,2.2,0.4,3.3C94.2,46.8,93.7,47.3,93,47.4
					C93.1,47.4,93.1,47.4,93,47.4z M7.5,43.3c-0.1,0-0.1,0-0.2,0c-0.6-0.1-1-0.7-0.9-1.3c0.2-1.1,0.4-2.2,0.7-3.2
					c0.2-0.6,0.7-0.9,1.3-0.8c0.6,0.2,0.9,0.7,0.8,1.3c-0.3,1-0.5,2.1-0.7,3.1C8.5,42.9,8,43.3,7.5,43.3z M91.7,40
					c-0.5,0-0.9-0.3-1-0.8c-0.3-1-0.6-2-0.9-3c-0.2-0.6,0.1-1.2,0.7-1.4c0.6-0.2,1.2,0.1,1.4,0.7c0.4,1,0.7,2.1,1,3.2
					c0.2,0.6-0.2,1.2-0.8,1.3C91.9,39.9,91.8,40,91.7,40z M9.5,36c-0.1,0-0.3,0-0.4-0.1c-0.6-0.2-0.8-0.8-0.6-1.4
					c0.4-1,0.8-2.1,1.3-3.1c0.2-0.5,0.9-0.8,1.4-0.5c0.5,0.3,0.8,0.9,0.5,1.4c-0.4,1-0.8,1.9-1.2,2.9C10.4,35.7,10,36,9.5,36z
					 M89.2,32.9c-0.4,0-0.8-0.2-1-0.6c-0.4-0.9-0.9-1.9-1.4-2.8c-0.3-0.5-0.1-1.2,0.4-1.5c0.5-0.3,1.2-0.1,1.5,0.4c0.5,1,1,2,1.5,3
					c0.3,0.5,0,1.2-0.5,1.4C89.5,32.8,89.3,32.9,89.2,32.9z M12.8,29.2c-0.2,0-0.4,0-0.5-0.2c-0.5-0.3-0.7-1-0.4-1.5
					c0.6-1,1.2-1.9,1.8-2.8c0.3-0.5,1-0.6,1.5-0.3c0.5,0.3,0.6,1,0.3,1.5c-0.6,0.9-1.2,1.8-1.7,2.7C13.5,29,13.1,29.2,12.8,29.2z
					 M85.4,26.3c-0.3,0-0.7-0.2-0.9-0.5c-0.6-0.9-1.2-1.7-1.9-2.5c-0.4-0.5-0.3-1.1,0.2-1.5c0.5-0.4,1.1-0.3,1.5,0.2
					c0.7,0.8,1.4,1.7,2,2.6c0.3,0.5,0.2,1.2-0.3,1.5C85.8,26.3,85.6,26.3,85.4,26.3z M17.2,23c-0.2,0-0.5-0.1-0.7-0.3
					c-0.5-0.4-0.5-1.1-0.1-1.5c0.7-0.8,1.5-1.7,2.2-2.4c0.4-0.4,1.1-0.4,1.5,0c0.4,0.4,0.4,1.1,0,1.5c-0.7,0.7-1.5,1.5-2.1,2.3
					C17.8,22.9,17.5,23,17.2,23z M80.5,20.5c-0.3,0-0.6-0.1-0.8-0.3c-0.7-0.7-1.5-1.5-2.3-2.1C77,17.7,77,17,77.4,16.6
					c0.4-0.4,1.1-0.5,1.5-0.1c0.8,0.7,1.7,1.5,2.4,2.3c0.4,0.4,0.4,1.1,0,1.5C81.1,20.4,80.8,20.5,80.5,20.5z M22.5,17.7
					c-0.3,0-0.6-0.1-0.8-0.4c-0.4-0.5-0.3-1.1,0.1-1.5c0.9-0.7,1.7-1.4,2.6-2c0.5-0.3,1.2-0.2,1.5,0.3c0.3,0.5,0.2,1.2-0.3,1.5
					c-0.9,0.6-1.7,1.2-2.5,1.9C23,17.7,22.8,17.7,22.5,17.7z M74.8,15.7c-0.2,0-0.4-0.1-0.6-0.2c-0.9-0.6-1.8-1.2-2.7-1.7
					c-0.5-0.3-0.7-1-0.4-1.5c0.3-0.5,1-0.7,1.5-0.4c0.9,0.6,1.9,1.2,2.8,1.8c0.5,0.3,0.6,1,0.3,1.5C75.4,15.5,75.1,15.7,74.8,15.7z
					 M28.8,13.5c-0.4,0-0.7-0.2-0.9-0.5c-0.3-0.5-0.1-1.2,0.4-1.5c1-0.5,2-1.1,2.9-1.5c0.5-0.3,1.2,0,1.4,0.5c0.3,0.5,0,1.2-0.5,1.4
					c-0.9,0.4-1.9,0.9-2.8,1.4C29.1,13.4,28.9,13.5,28.8,13.5z M68.2,11.9c-0.2,0-0.3,0-0.5-0.1c-1-0.4-1.9-0.9-2.9-1.2
					c-0.6-0.2-0.8-0.8-0.6-1.4c0.2-0.6,0.8-0.8,1.4-0.6c1,0.4,2.1,0.8,3.1,1.3c0.5,0.3,0.8,0.9,0.5,1.4C69,11.7,68.6,11.9,68.2,11.9
					z M35.6,10.3c-0.4,0-0.9-0.3-1-0.7c-0.2-0.6,0.1-1.2,0.7-1.4c1-0.4,2.1-0.7,3.2-1C39,7.1,39.6,7.4,39.8,8
					c0.2,0.6-0.2,1.2-0.8,1.3c-1,0.3-2,0.6-3,0.9C35.9,10.3,35.8,10.3,35.6,10.3z M61.1,9.3c-0.1,0-0.2,0-0.3,0
					c-1-0.3-2-0.5-3.1-0.7c-0.6-0.1-1-0.7-0.9-1.3c0.1-0.6,0.7-1,1.3-0.9c1.1,0.2,2.2,0.4,3.2,0.7C62,7.4,62.3,8,62.2,8.5
					C62,9,61.6,9.3,61.1,9.3z M42.9,8.5c-0.5,0-1-0.4-1.1-0.9c-0.1-0.6,0.3-1.1,0.9-1.2C43.8,6.1,45,6,46.1,5.9c0.6,0,1.1,0.4,1.2,1
					c0.1,0.6-0.4,1.1-1,1.2c-1,0.1-2.1,0.2-3.1,0.4C43.1,8.5,43,8.5,42.9,8.5z M53.7,8C53.7,8,53.6,8,53.7,8
					c-1.1-0.1-2.2-0.1-3.2-0.2c-0.6,0-1.1-0.5-1.1-1.1c0-0.6,0.5-1.1,1.1-1.1c0,0,0,0,0,0c1.1,0,2.2,0.1,3.3,0.2c0.6,0,1,0.6,1,1.2
					C54.7,7.6,54.3,8,53.7,8z"/>
			</g>
			<g>
				<path fill="#70431B" d="M50,100C22.4,100,0,77.6,0,50S22.4,0,50,0s50,22.4,50,50S77.6,100,50,100z M50,3.6
					C24.4,3.6,3.6,24.4,3.6,50S24.4,96.4,50,96.4S96.4,75.6,96.4,50S75.6,3.6,50,3.6z"/>
			</g>
		</g>
	</g>
	<g>
		<g>
			<path fill="#4D5A41" d="M46.1,45.4c0,5-4.1,11.9-9.1,11.9s-9.1-6.9-9.1-11.9s4.1-9.1,9.1-9.1S46.1,40.4,46.1,45.4z"/>
		</g>
		<g>
			<path fill="#4D5A41" d="M53.3,71.4c0,1.9-7.3,6.3-16.3,6.3c-10.6,0-16.4-5.6-16.4-6.3c0-2.8,0.7-9.9,9.4-14.9c3,3,5.3,3.4,7,3.4
				c1.7,0,4.1-0.4,6.7-3C52.2,60.5,53.3,70.1,53.3,71.4z"/>
		</g>
	</g>
	<g>
		<g>
			<path fill="#931B37" d="M72.7,29.4c0,5-4.1,11.9-9.1,11.9s-9.1-6.9-9.1-11.9s4.1-9.1,9.1-9.1S72.7,24.3,72.7,29.4z"/>
		</g>
		<g>
			<path fill="#931B37" d="M79.9,55.4c0,1.9-7.3,6.3-16.3,6.3c-10.6,0-16.4-5.6-16.4-6.3c0-2.8,0.7-9.9,9.4-14.9c3,3,5.3,3.4,7,3.4
				c1.7,0,4.1-0.4,6.7-3C78.7,44.5,79.9,54.1,79.9,55.4z"/>
		</g>
	</g>
</g>
</svg>
