<?xml version="1.0" encoding="utf-8"?><!-- Generator: Adobe Illustrator 18.1.1, SVG Export Plug-In . SVG Version: 6.00 Build 0)  -->
<svg version="1.1" id="Capa_1" xmlns="http://www.w3.org/2000/svg" xmlns:xlink="http://www.w3.org/1999/xlink" x="0px" y="0px"
	 viewBox="0 0 100 100" enable-background="new 0 0 100 100" xml:space="preserve">
<g>
	<g>
		<path fill="#008080" d="M63.3,72.3c2.7,0,6.7,1.8,9.8,4.5c1.9-3.6,3-7.7,3-12c0-14.4-11.6-26-26-26s-26,11.6-26,26s11.6,26,26,26
			c5.7,0,10.9-1.8,15.2-4.9c-2.2-2-4-4.5-5-6.5c-1.4-3.1-0.8-4.9,0-5.8C60.7,72.9,61.6,72.3,63.3,72.3z M73.3,64.7
			c0,2.2-1.7,3.9-3.9,3.9c-2.2,0-3.9-1.7-3.9-3.9c0-2.2,1.7-3.9,3.9-3.9C71.6,60.8,73.3,62.6,73.3,64.7z M64.9,51.7
			c1.9-1.1,4.2-0.4,5.3,1.4c1.1,1.9,0.4,4.2-1.4,5.3c-1.9,1.1-4.2,0.4-5.3-1.4C62.4,55.1,63,52.7,64.9,51.7z M29.8,53.1
			c1.1-1.9,3.5-2.5,5.3-1.4c1.9,1.1,2.5,3.5,1.4,5.3c-1.1,1.9-3.5,2.5-5.3,1.4C29.4,57.3,28.7,55,29.8,53.1z M26.7,64.7
			c0-2.2,1.7-3.9,3.9-3.9c2.2,0,3.9,1.7,3.9,3.9c0,2.2-1.7,3.9-3.9,3.9C28.4,68.6,26.7,66.9,26.7,64.7z M35.1,77.8
			c-1.9,1.1-4.2,0.4-5.3-1.4c-1.1-1.9-0.4-4.2,1.4-5.3s4.2-0.4,5.3,1.4C37.6,74.4,37,76.7,35.1,77.8z M43.7,83.5
			c-1.1,1.9-3.5,2.5-5.3,1.4c-1.9-1.1-2.5-3.5-1.4-5.3c1.1-1.9,3.5-2.5,5.3-1.4C44.1,79.3,44.7,81.6,43.7,83.5z M42.2,51.3
			c-1.9,1.1-4.2,0.4-5.3-1.4c-1.1-1.9-0.4-4.2,1.4-5.3c1.9-1.1,4.2-0.4,5.3,1.4S44.1,50.2,42.2,51.3z M50,49.2
			c-2.2,0-3.9-1.7-3.9-3.9s1.7-3.9,3.9-3.9s3.9,1.7,3.9,3.9S52.2,49.2,50,49.2z M57.8,51.3c-1.9-1.1-2.5-3.5-1.4-5.3
			c1.1-1.9,3.5-2.5,5.3-1.4c1.9,1.1,2.5,3.5,1.4,5.3C62,51.7,59.6,52.4,57.8,51.3z"/>
		<path fill="#008080" d="M75,86.5c-4.9,5.6-16.9-8.5-13.8-12.1C64.4,70.8,80,80.8,75,86.5z"/>
	</g>
	<path fill="#008080" d="M98.3,28.1C94.5,18.5,73.7,9.3,50,9.3S5.5,18.5,1.7,28.1C0.7,29.3,0,30.9,0,32.6v3.5C0,39.9,3.1,43,6.9,43
		h17.3c3.8,0,6.9-3.1,6.9-6.9v-3.5c0-2.5-1.3-4.6-3.3-5.9c1.6-3.8,8.7-6.6,22.2-6.6c13.4,0,20.5,2.8,22.2,6.6
		c-2,1.2-3.3,3.4-3.3,5.9v3.5c0,3.8,3.1,6.9,6.9,6.9h17.3c3.8,0,6.9-3.1,6.9-6.9v-3.5C100,30.9,99.3,29.3,98.3,28.1z"/>
</g>
</svg>
